CO2_Flux
…
Mégane

2023-03-20

Air–Sea CO2 Flux (2007-2018)

Article DE CARLO

Data : - pCO2 water (uatm) - pCO2 air (ppm) - wind speed 10m
(m/s)

Wind speed (m/s) par heure >> calcul moyenne wind speed par
jour

## # A tibble: 4,086 x 2
##    sampling_date wind_mean_daily
##    <chr>                   <dbl>
##  1 2007-01-01               9.03
##  2 2007-01-02              11.0 
##  3 2007-01-03               3.84
##  4 2007-01-04               5.62
##  5 2007-01-05               2.84
##  6 2007-01-06               2.76
##  7 2007-01-07               1.77
##  8 2007-01-08               6.15
##  9 2007-01-09               3.66
## 10 2007-01-10               3.54
## # ... with 4,076 more rows
…
k <- K600 * (Sc/600)^(-1/2)
DATA <- DATA %>% mutate(k = K600 * (Sc/600)^(-1/2))

Calcul de F - part 2

alpha = solubility of CO2 in seawater at a specific temperature and
salinity

Table of the solubility coefficients (10^-2 moles/l/atm) according to
temperature and salinity = mmol/m3/atm

coef_solubility_alpha <- read_table("../Data/coef_solubility_alpha_weiss_1974.txt")
coef_solubility_alpha

## # A tibble: 25 x 11
##    `T(°C)`   `0`  `10`  `20`  `30`  `34`  `35`  `36`  `38`  `40` X11  
##      <dbl> <dbl> <dbl> <dbl> <dbl> <dbl> <dbl> <dbl> <dbl> <dbl> <lgl>
##  1      -1 NA    NA     7.27  6.90  6.76  6.72  6.69  6.62  6.55 NA   
##  2       0  7.76  7.36  6.99  6.64  6.50  6.46  6.43  6.36  6.30 NA   
##  3       1  7.46  7.08  6.72  6.38  6.25  6.22  6.19  6.12  6.06 NA   
##  4       2  7.17  6.81  6.47  6.14  6.02  5.99  5.96  5.89  5.83 NA   
##  5       3  6.90  6.56  6.23  5.92  5.80  5.77  5.74  5.68  5.62 NA   
##  6       4  6.65  6.32  6.00  5.70  5.58  5.56  5.53  5.47  5.42 NA   
##  7       5  6.41  6.09  5.78  5.50  5.39  5.36  5.33  5.28  5.22 NA   
##  8       6  6.18  5.87  5.58  5.30  5.20  5.17  5.14  5.09  5.04 NA   
##  9       8  5.75  5.47  5.2   4.94  4.85  4.82  4.80  4.75  4.70 NA   
## 10      10  5.37  5.11  4.86  4.62  4.53  4.51  4.49  4.44  4.40 NA   
## # ... with 15 more rows
…
